Computational Analysis of Communication
…
  Example 2.1.

Retrieving cached tweets about COVID

  Python code

tw=pd.read_csv("https://cssbook.net/d/covid.csv")
tw.head()  

  R code

tw = read_csv("https://cssbook.net/d/covid.csv")
head(tw)  

# A tibble: 9,811 x 8
  status_id created_at          screen_name     lang  location         text               retweet_count reply_to_screen.
      <dbl> <dttm>              <chr>           <chr> <chr>            <chr>                      <dbl> <chr>
1   1.31e18 2020-09-25 16:50:33 ghulamabbasshah en    Lahore, Pakistan "Secularism of #G.          1203 NA
2   1.31e18 2020-09-25 22:49:07 GeoRebekah      en    Florida, USA     "On the day @GovR.          1146 NA
3   1.31e18 2020-09-25 19:39:16 AlexBerenson    en    New York         "Updated @cgcgov .           988 NA
# . with 9,808 more rows
…
